%YAML 1.1
%TAG !u! tag:unity3d.com,2011:
--- !u!1045 &1
EditorBuildSettings:
  m_ObjectHideFlags: 0
  serializedVersion: 2
  m_Scenes:
  - enabled: 1
    path: "Assets/Scenes/Men\xFA.unity"
    guid: 979ac9d01c3752c4f8f4d6760b861f36
  - enabled: 1
    path: Assets/Scenes/Fuegos Artificiales.unity
    guid: 9141ecc35cda17149ac8876c0e1cf3c3
  - enabled: 1
    path: Assets/Scenes/Tornado.unity
    guid: 56267840efd9b7b4a9a12c5e65c9de75
  - enabled: 1
    path: Assets/Scenes/Nieve.unity
    guid: 9fc0d4010bbf28b4594072e72b8655ab
  m_configObjects: {}
